{
  "page": 1,
  "per_page": 1,
  "photos": [
    {
      "id": 73825,
      "width": 1500,
      "height": 1146,
      "url": "https://www.pexels.com/photo/black-and-white-eagle-73825/",
      "photographer": "Pixabay",
      "photographer_url": "https://www.pexels.com/@pixabay",
      "photographer_id": 2659,
      "avg_color": "#94ACC6",
      "src": {
        "original": "https://images.pexels.com/photos/73825/osprey-adler-bird-of-prey-raptor-73825.jpeg",
        "large2x": "https://images.pexels.com/photos/73825/osprey-adler-bird-of-prey-raptor-73825.jpeg?auto=compress\u0026cs=tinysrgb\u0026dpr=2\u0026h=650\u0026w=940",
        "large": "https://images.pexels.com/photos/73825/osprey-adler-bird-of-prey-raptor-73825.jpeg?auto=compress\u0026cs=tinysrgb\u0026h=650\u0026w=940",
        "medium": "https://images.pexels.com/photos/73825/osprey-adler-bird-of-prey-raptor-73825.jpeg?auto=compress\u0026cs=tinysrgb\u0026h=350",
        "small": "https://images.pexels.com/photos/73825/osprey-adler-bird-of-prey-raptor-73825.jpeg?auto=compress\u0026cs=tinysrgb\u0026h=130",
        "portrait": "https://images.pexels.com/photos/73825/osprey-adler-bird-of-prey-raptor-73825.jpeg?auto=compress\u0026cs=tinysrgb\u0026fit=crop\u0026h=1200\u0026w=800",
        "landscape": "https://images.pexels.com/photos/73825/osprey-adler-bird-of-prey-raptor-73825.jpeg?auto=compress\u0026cs=tinysrgb\u0026fit=crop\u0026h=627\u0026w=1200",
        "tiny": "https://images.pexels.com/photos/73825/osprey-adler-bird-of-prey-raptor-73825.jpeg?auto=compress\u0026cs=tinysrgb\u0026dpr=1\u0026fit=crop\u0026h=200\u0026w=280"
      },
      "liked": false,
      "alt": "Close-up of an osprey gliding through clear skies with wings wide open, showcasing nature's beauty."
    }
  ],
  "total_results": 4006,
  "next_page": "https://api.pexels.com/v1/search?page=2\u0026per_page=1\u0026query=eagle"
}